EESchema Schematic File Version 2
LIBS:power
LIBS:device
LIBS:transistors
LIBS:conn
LIBS:linear
LIBS:regul
LIBS:74xx
LIBS:cmos4000
LIBS:adc-dac
LIBS:memory
LIBS:xilinx
LIBS:special
LIBS:microcontrollers
LIBS:dsp
LIBS:microchip
LIBS:analog_switches
LIBS:motorola
LIBS:texas
LIBS:intel
LIBS:audio
LIBS:interface
LIBS:digital-audio
LIBS:philips
LIBS:display
LIBS:cypress
LIBS:siliconi
LIBS:opto
LIBS:atmel
LIBS:contrib
LIBS:valves
LIBS:maplinservocontroller
LIBS:NE555N
LIBS:relay_arlotto
LIBS:spst_reed_relay
LIBS:spst_relay
LIBS:button_presser-cache
EELAYER 24 0
EELAYER END
$Descr A4 11693 8268
encoding utf-8
Sheet 1 1
Title ""
Date ""
Rev ""
Comp ""
Comment1 ""
Comment2 ""
Comment3 ""
Comment4 ""
$EndDescr
$Comp
L NE555N U1
U 1 1 53CA4A1B
P 2950 1700
F 0 "U1" H 2950 1600 50  0000 C CNN
F 1 "NE555N" H 2950 1800 50  0000 C CNN
F 2 "Sockets_DIP:DIP-8__300" H 2950 1700 50  0001 C CNN
F 3 "" H 2950 1700 50  0001 C CNN
	1    2950 1700
	1    0    0    -1  
$EndComp
$Comp
L R R1
U 1 1 53CA4AEE
P 1350 1150
F 0 "R1" V 1430 1150 40  0000 C CNN
F 1 "10k" V 1357 1151 40  0000 C CNN
F 2 "Discret:R3" V 1280 1150 30  0001 C CNN
F 3 "" H 1350 1150 30  0000 C CNN
	1    1350 1150
	1    0    0    -1  
$EndComp
$Comp
L R R2
U 1 1 53CA4B17
P 1825 1150
F 0 "R2" V 1905 1150 40  0000 C CNN
F 1 "100k" V 1832 1151 40  0000 C CNN
F 2 "Discret:R3" V 1755 1150 30  0001 C CNN
F 3 "" H 1825 1150 30  0000 C CNN
	1    1825 1150
	1    0    0    -1  
$EndComp
$Comp
L R R3
U 1 1 53CA4C07
P 4450 1200
F 0 "R3" V 4530 1200 40  0000 C CNN
F 1 "22k" V 4457 1201 40  0000 C CNN
F 2 "Discret:R3" V 4380 1200 30  0001 C CNN
F 3 "" H 4450 1200 30  0000 C CNN
	1    4450 1200
	1    0    0    -1  
$EndComp
$Comp
L R R4
U 1 1 53CA4C46
P 4450 1900
F 0 "R4" V 4530 1900 40  0000 C CNN
F 1 "47k" V 4457 1901 40  0000 C CNN
F 2 "Discret:R3" V 4380 1900 30  0001 C CNN
F 3 "" H 4450 1900 30  0000 C CNN
	1    4450 1900
	1    0    0    -1  
$EndComp
$Comp
L C C1
U 1 1 53CA4E7C
P 1550 1850
F 0 "C1" H 1550 1950 40  0000 L CNN
F 1 "100n" H 1556 1765 40  0000 L CNN
F 2 "Discret:C1" H 1588 1700 30  0001 C CNN
F 3 "" H 1550 1850 60  0000 C CNN
	1    1550 1850
	0    1    1    0   
$EndComp
$Comp
L CP C3
U 1 1 53CA5095
P 5000 2000
F 0 "C3" H 5050 2100 40  0000 L CNN
F 1 "220u" H 5050 1900 40  0000 L CNN
F 2 "Discret:CP36V" H 5100 1850 30  0001 C CNN
F 3 "" H 5000 2000 300 0000 C CNN
	1    5000 2000
	1    0    0    -1  
$EndComp
$Comp
L CP C2
U 1 1 53CA5157
P 4450 2650
F 0 "C2" H 4500 2750 40  0000 L CNN
F 1 "100u" H 4500 2550 40  0000 L CNN
F 2 "Discret:CP36V" H 4550 2500 30  0001 C CNN
F 3 "" H 4450 2650 300 0000 C CNN
	1    4450 2650
	1    0    0    -1  
$EndComp
$Comp
L DIODE D1
U 1 1 53CA51AE
P 825 2650
F 0 "D1" H 825 2750 40  0000 C CNN
F 1 "DIODE" H 825 2550 40  0000 C CNN
F 2 "Discret:D3" H 825 2650 60  0001 C CNN
F 3 "" H 825 2650 60  0000 C CNN
	1    825  2650
	0    -1   -1   0   
$EndComp
$Comp
L +12V #PWR01
U 1 1 53CA64F5
P 5250 900
F 0 "#PWR01" H 5250 850 20  0001 C CNN
F 1 "+12V" H 5250 1000 30  0000 C CNN
F 2 "" H 5250 900 60  0000 C CNN
F 3 "" H 5250 900 60  0000 C CNN
	1    5250 900 
	1    0    0    -1  
$EndComp
$Comp
L GND #PWR02
U 1 1 53CA65DC
P 2850 3450
F 0 "#PWR02" H 2850 3450 30  0001 C CNN
F 1 "GND" H 2850 3380 30  0001 C CNN
F 2 "" H 2850 3450 60  0000 C CNN
F 3 "" H 2850 3450 60  0000 C CNN
	1    2850 3450
	1    0    0    -1  
$EndComp
NoConn ~ 3700 1850
$Comp
L GND #PWR03
U 1 1 53CA69B6
P 6675 1325
F 0 "#PWR03" H 6675 1325 30  0001 C CNN
F 1 "GND" H 6675 1255 30  0001 C CNN
F 2 "" H 6675 1325 60  0000 C CNN
F 3 "" H 6675 1325 60  0000 C CNN
	1    6675 1325
	0    -1   -1   0   
$EndComp
$Comp
L +12V #PWR04
U 1 1 53CA69CA
P 6300 1125
F 0 "#PWR04" H 6300 1075 20  0001 C CNN
F 1 "+12V" H 6300 1225 30  0000 C CNN
F 2 "" H 6300 1125 60  0000 C CNN
F 3 "" H 6300 1125 60  0000 C CNN
	1    6300 1125
	0    1    -1   0   
$EndComp
$Comp
L R R5
U 1 1 53CA721B
P 3150 3975
F 0 "R5" H 3230 3975 40  0000 C CNN
F 1 "1k" V 3157 3976 40  0000 C CNN
F 2 "Discret:R3" V 3080 3975 30  0001 C CNN
F 3 "" H 3150 3975 30  0000 C CNN
	1    3150 3975
	0    1    1    0   
$EndComp
$Comp
L NPN Q1
U 1 1 53CA72B1
P 3825 3975
F 0 "Q1" H 3825 3825 50  0000 R CNN
F 1 "NPN" H 3825 4125 50  0000 R CNN
F 2 "Transistors_TO-220:TO-220_Neutral123_Vertical" H 3825 3975 60  0001 C CNN
F 3 "" H 3825 3975 60  0000 C CNN
	1    3825 3975
	1    0    0    -1  
$EndComp
$Comp
L GND #PWR05
U 1 1 53CA7DFC
P 3925 4375
F 0 "#PWR05" H 3925 4375 30  0001 C CNN
F 1 "GND" H 3925 4305 30  0001 C CNN
F 2 "" H 3925 4375 60  0000 C CNN
F 3 "" H 3925 4375 60  0000 C CNN
	1    3925 4375
	1    0    0    -1  
$EndComp
$Comp
L +12V #PWR06
U 1 1 53CA7FDD
P 5850 3650
F 0 "#PWR06" H 5850 3600 20  0001 C CNN
F 1 "+12V" H 5850 3750 30  0000 C CNN
F 2 "" H 5850 3650 60  0000 C CNN
F 3 "" H 5850 3650 60  0000 C CNN
	1    5850 3650
	1    0    0    -1  
$EndComp
$Comp
L CONNECTOR P1
U 1 1 53CACA69
P 4325 4425
F 0 "P1" H 4675 4525 70  0000 C CNN
F 1 "CTL Input" H 4675 4325 70  0000 C CNN
F 2 "Connect:1pin" H 4325 4425 60  0001 C CNN
F 3 "" H 4325 4425 60  0000 C CNN
	1    4325 4425
	1    0    0    -1  
$EndComp
$Comp
L CONNECTOR P2
U 1 1 53CACACA
P 5700 4400
F 0 "P2" H 6050 4500 70  0000 C CNN
F 1 "CTL Output" H 6050 4300 70  0000 C CNN
F 2 "Connect:1pin" H 5700 4400 60  0001 C CNN
F 3 "" H 5700 4400 60  0000 C CNN
	1    5700 4400
	1    0    0    -1  
$EndComp
$Comp
L DIODE D2
U 1 1 53CAA46F
P 4900 3325
F 0 "D2" H 4900 3425 40  0000 C CNN
F 1 "DIODE" H 4900 3225 40  0000 C CNN
F 2 "Discret:D3" H 4900 3325 60  0001 C CNN
F 3 "" H 4900 3325 60  0000 C CNN
	1    4900 3325
	1    0    0    -1  
$EndComp
$Comp
L SPST_Relay U2
U 1 1 53CAC2F8
P 4925 3725
F 0 "U2" H 4925 3925 60  0000 C CNN
F 1 "SPST_Relay" H 4925 3825 60  0000 C CNN
F 2 "Realays_by_arlotto:relay-JS-M" H 5025 3525 60  0001 C CNN
F 3 "" H 5025 3525 60  0000 C CNN
	1    4925 3725
	1    0    0    -1  
$EndComp
$Comp
L SPST_Reed_Relay U3
U 1 1 53CAFCE9
P 1175 2675
F 0 "U3" H 1175 2375 60  0000 C CNN
F 1 "SPST_Reed_Relay" H 1200 2800 60  0000 C CNN
F 2 "" H 1175 2675 60  0000 C CNN
F 3 "" H 1175 2675 60  0000 C CNN
	1    1175 2675
	0    -1   -1   0   
$EndComp
$Comp
L CONN_1 P3
U 1 1 53CB0BA6
P 5850 3975
F 0 "P3" H 5930 3975 40  0000 L CNN
F 1 "CONN_1" H 5850 4030 30  0001 C CNN
F 2 "" H 5850 3975 60  0000 C CNN
F 3 "" H 5850 3975 60  0000 C CNN
	1    5850 3975
	1    0    0    -1  
$EndComp
$Comp
L PWR_FLAG #FLG07
U 1 1 53CB1F29
P 6175 1125
F 0 "#FLG07" H 6175 1220 30  0001 C CNN
F 1 "PWR_FLAG" H 6175 1305 30  0000 C CNN
F 2 "" H 6175 1125 60  0000 C CNN
F 3 "" H 6175 1125 60  0000 C CNN
	1    6175 1125
	1    0    0    -1  
$EndComp
$Comp
L PWR_FLAG #FLG08
U 1 1 53CB1F97
P 6525 1325
F 0 "#FLG08" H 6525 1420 30  0001 C CNN
F 1 "PWR_FLAG" H 6525 1505 30  0000 C CNN
F 2 "" H 6525 1325 60  0000 C CNN
F 3 "" H 6525 1325 60  0000 C CNN
	1    6525 1325
	-1   0    0    1   
$EndComp
Wire Wire Line
	1175 900  5250 900 
Wire Wire Line
	5000 900  5000 1800
Wire Wire Line
	3700 900  3700 1550
Connection ~ 5000 900 
Wire Wire Line
	1950 900  1950 1850
Wire Wire Line
	1950 1850 2200 1850
Connection ~ 3700 900 
Wire Wire Line
	3700 1650 4450 1650
Wire Wire Line
	4450 1650 4450 1450
Wire Wire Line
	3700 1750 4050 1750
Wire Wire Line
	4050 1750 4050 2300
Wire Wire Line
	4050 2300 4450 2300
Wire Wire Line
	4450 2150 4450 2450
Connection ~ 4450 2300
Wire Wire Line
	4450 3150 4450 2850
Connection ~ 2850 3150
Wire Wire Line
	1825 1400 1825 1850
Wire Wire Line
	1825 1850 1750 1850
Connection ~ 1950 900 
Connection ~ 1825 900 
Wire Wire Line
	1350 1400 1350 2200
Connection ~ 1350 900 
Connection ~ 1350 1850
Wire Wire Line
	5000 3150 5000 2200
Connection ~ 4450 3150
Wire Wire Line
	2200 1550 2100 1550
Wire Wire Line
	2100 1550 2100 3150
Connection ~ 2100 3150
Wire Wire Line
	2200 1650 1825 1650
Connection ~ 1825 1650
Wire Wire Line
	2850 3150 2850 3450
Wire Wire Line
	4450 950  4450 900 
Connection ~ 4450 900 
Wire Wire Line
	3400 3975 3625 3975
Wire Wire Line
	3925 4175 3925 4375
Wire Wire Line
	5850 3650 5850 3775
Wire Wire Line
	5850 3775 5575 3775
Wire Wire Line
	4275 3775 3925 3775
Wire Wire Line
	4325 3975 4325 4425
Wire Wire Line
	4275 3775 4275 3325
Wire Wire Line
	4275 3325 4700 3325
Wire Wire Line
	5100 3325 5575 3325
Wire Wire Line
	5575 3325 5575 3775
Connection ~ 1350 3150
Wire Wire Line
	1175 900  1175 2125
Wire Wire Line
	825  2850 825  3150
Wire Wire Line
	825  2450 825  2125
Wire Wire Line
	825  2125 1175 2125
Wire Wire Line
	5425 3975 5700 3975
Wire Wire Line
	5425 4175 5425 4400
Wire Wire Line
	5425 4400 5700 4400
Wire Wire Line
	1350 3150 1350 3100
Wire Wire Line
	825  3150 5000 3150
Connection ~ 1175 3150
Wire Wire Line
	5900 1125 6300 1125
$Comp
L BARREL_JACK CON1
U 1 1 53CB2CDE
P 5600 1225
F 0 "CON1" H 5600 1475 60  0000 C CNN
F 1 "BARREL_JACK" H 5600 1025 60  0000 C CNN
F 2 "" H 5600 1225 60  0000 C CNN
F 3 "" H 5600 1225 60  0000 C CNN
	1    5600 1225
	1    0    0    -1  
$EndComp
Wire Wire Line
	5900 1225 5900 1325
Connection ~ 6175 1125
$Comp
L TEST W1
U 1 1 53CB3177
P 1850 3175
F 0 "W1" H 1850 3235 40  0000 C CNN
F 1 "BRIDGE" H 1850 3105 40  0000 C CNN
F 2 "" H 1850 3175 60  0000 C CNN
F 3 "" H 1850 3175 60  0000 C CNN
	1    1850 3175
	0    1    1    0   
$EndComp
Wire Wire Line
	1850 1750 1850 2975
Wire Wire Line
	2900 3975 1850 3975
Wire Wire Line
	1850 3975 1850 3375
Wire Wire Line
	1850 1750 2200 1750
$Comp
L TEST W2
U 1 1 53CB42A0
P 6200 1325
F 0 "W2" H 6200 1385 40  0000 C CNN
F 1 "BRIDGE" H 6200 1255 40  0000 C CNN
F 2 "" H 6200 1325 60  0000 C CNN
F 3 "" H 6200 1325 60  0000 C CNN
	1    6200 1325
	-1   0    0    1   
$EndComp
Wire Wire Line
	5900 1325 6000 1325
Wire Wire Line
	6400 1325 6675 1325
Connection ~ 6525 1325
$EndSCHEMATC
