<?xml version="1.0" standalone="no"?>
 <!DOCTYPE svg PUBLIC "-//W3C//DTD SVG 1.1//EN" 
 "http://www.w3.org/Graphics/SVG/1.1/DTD/svg11.dtd"> 
<svg xmlns="http://www.w3.org/2000/svg" version="1.1" 
    width="29.7002cm" height="21.0007cm" viewBox="0 0 116930 82680 ">
<title>SVG Picture created as button_presser-B_Cu.svg date 2014/07/20 23:36:45 </title>
  <desc>Picture generated by PCBNEW </desc>
<g style="fill:#000000; fill-opacity:1;stroke:#000000; stroke-opacity:1;
stroke-linecap:round; stroke-linejoin:round; "
 transform="translate(0 0) scale(1 1)">
</g>
<g style="fill:#000000; fill-opacity:0.0; 
stroke:#000000; stroke-width:39.3701; stroke-opacity:1; 
stroke-linecap:round; stroke-linejoin:round;">
</g>
<g style="fill:#000000; fill-opacity:0.0; 
stroke:#000000; stroke-width:59.0551; stroke-opacity:1; 
stroke-linecap:round; stroke-linejoin:round;">
<rect x="69685.9" y="65357.2" width="42519.7" height="12598.4" rx="0" />
</g>
<g style="fill:#000000; fill-opacity:0.0; 
stroke:#000000; stroke-width:39.3701; stroke-opacity:1; 
stroke-linecap:round; stroke-linejoin:round;">
</g>
<g style="fill:#000000; fill-opacity:0.0; 
stroke:#000000; stroke-width:59.0551; stroke-opacity:1; 
stroke-linecap:round; stroke-linejoin:round;">
<rect x="3937.01" y="3937.01" width="109056" height="74806" rx="0" />
</g>
<g style="fill:#000000; fill-opacity:0.0; 
stroke:#000000; stroke-width:39.3701; stroke-opacity:1; 
stroke-linecap:round; stroke-linejoin:round;">
</g>
<g style="fill:#000000; fill-opacity:0.0; 
stroke:#000000; stroke-width:59.0551; stroke-opacity:1; 
stroke-linecap:round; stroke-linejoin:round;">
<rect x="4724.41" y="4724.41" width="107481" height="73231.2" rx="0" />
</g>
<g style="fill:#000000; fill-opacity:0.0; 
stroke:#000000; stroke-width:39.3701; stroke-opacity:1; 
stroke-linecap:round; stroke-linejoin:round;">
</g>
<g style="fill:#000000; fill-opacity:0.0; 
stroke:#000000; stroke-width:59.0551; stroke-opacity:1; 
stroke-linecap:round; stroke-linejoin:round;">
<path d="M23622 4724
L23622 3937
" />
</g>
<g style="fill:#000000; fill-opacity:0.0; 
stroke:#000000; stroke-width:39.3701; stroke-opacity:1; 
stroke-linecap:round; stroke-linejoin:round;">
</g>
<g style="fill:#000000; fill-opacity:0.0; 
stroke:#000000; stroke-width:59.0551; stroke-opacity:1; 
stroke-linecap:round; stroke-linejoin:round;">
<path d="M43307 4724
L43307 3937
" />
</g>
<g style="fill:#000000; fill-opacity:0.0; 
stroke:#000000; stroke-width:39.3701; stroke-opacity:1; 
stroke-linecap:round; stroke-linejoin:round;">
</g>
<g style="fill:#000000; fill-opacity:0.0; 
stroke:#000000; stroke-width:59.0551; stroke-opacity:1; 
stroke-linecap:round; stroke-linejoin:round;">
<path d="M62992 4724
L62992 3937
" />
</g>
<g style="fill:#000000; fill-opacity:0.0; 
stroke:#000000; stroke-width:39.3701; stroke-opacity:1; 
stroke-linecap:round; stroke-linejoin:round;">
</g>
<g style="fill:#000000; fill-opacity:0.0; 
stroke:#000000; stroke-width:59.0551; stroke-opacity:1; 
stroke-linecap:round; stroke-linejoin:round;">
<path d="M82677 4724
L82677 3937
" />
</g>
<g style="fill:#000000; fill-opacity:0.0; 
stroke:#000000; stroke-width:39.3701; stroke-opacity:1; 
stroke-linecap:round; stroke-linejoin:round;">
</g>
<g style="fill:#000000; fill-opacity:0.0; 
stroke:#000000; stroke-width:59.0551; stroke-opacity:1; 
stroke-linecap:round; stroke-linejoin:round;">
<path d="M102362 4724
L102362 3937
" />
</g>
<g style="fill:#000000; fill-opacity:0.0; 
stroke:#000000; stroke-width:39.3701; stroke-opacity:1; 
stroke-linecap:round; stroke-linejoin:round;">
</g>
<g style="fill:#000000; fill-opacity:0.0; 
stroke:#000000; stroke-width:59.0551; stroke-opacity:1; 
stroke-linecap:round; stroke-linejoin:round;">
<path d="M14169 4562
L13877 4562
" />
<path d="M14023 4562
L14023 4050
L13974 4123
L13925 4172
L13877 4196
" />
</g>
<g style="fill:#000000; fill-opacity:0.0; 
stroke:#000000; stroke-width:39.3701; stroke-opacity:1; 
stroke-linecap:round; stroke-linejoin:round;">
</g>
<g style="fill:#000000; fill-opacity:0.0; 
stroke:#000000; stroke-width:59.0551; stroke-opacity:1; 
stroke-linecap:round; stroke-linejoin:round;">
<path d="M33562 4099
L33586 4074
L33635 4050
L33757 4050
L33805 4074
L33830 4099
L33854 4147
L33854 4196
L33830 4269
L33537 4562
L33854 4562
" />
</g>
<g style="fill:#000000; fill-opacity:0.0; 
stroke:#000000; stroke-width:39.3701; stroke-opacity:1; 
stroke-linecap:round; stroke-linejoin:round;">
</g>
<g style="fill:#000000; fill-opacity:0.0; 
stroke:#000000; stroke-width:59.0551; stroke-opacity:1; 
stroke-linecap:round; stroke-linejoin:round;">
<path d="M53222 4050
L53539 4050
L53368 4245
L53442 4245
L53490 4269
L53515 4294
L53539 4342
L53539 4464
L53515 4513
L53490 4537
L53442 4562
L53295 4562
L53247 4537
L53222 4513
" />
</g>
<g style="fill:#000000; fill-opacity:0.0; 
stroke:#000000; stroke-width:39.3701; stroke-opacity:1; 
stroke-linecap:round; stroke-linejoin:round;">
</g>
<g style="fill:#000000; fill-opacity:0.0; 
stroke:#000000; stroke-width:59.0551; stroke-opacity:1; 
stroke-linecap:round; stroke-linejoin:round;">
<path d="M73175 4221
L73175 4562
" />
<path d="M73053 4026
L72932 4391
L73248 4391
" />
</g>
<g style="fill:#000000; fill-opacity:0.0; 
stroke:#000000; stroke-width:39.3701; stroke-opacity:1; 
stroke-linecap:round; stroke-linejoin:round;">
</g>
<g style="fill:#000000; fill-opacity:0.0; 
stroke:#000000; stroke-width:59.0551; stroke-opacity:1; 
stroke-linecap:round; stroke-linejoin:round;">
<path d="M92885 4050
L92641 4050
L92617 4294
L92641 4269
L92690 4245
L92812 4245
L92860 4269
L92885 4294
L92909 4342
L92909 4464
L92885 4513
L92860 4537
L92812 4562
L92690 4562
L92641 4537
L92617 4513
" />
</g>
<g style="fill:#000000; fill-opacity:0.0; 
stroke:#000000; stroke-width:39.3701; stroke-opacity:1; 
stroke-linecap:round; stroke-linejoin:round;">
</g>
<g style="fill:#000000; fill-opacity:0.0; 
stroke:#000000; stroke-width:59.0551; stroke-opacity:1; 
stroke-linecap:round; stroke-linejoin:round;">
<path d="M112545 4050
L112448 4050
L112399 4074
L112375 4099
L112326 4172
L112302 4269
L112302 4464
L112326 4513
L112350 4537
L112399 4562
L112497 4562
L112545 4537
L112570 4513
L112594 4464
L112594 4342
L112570 4294
L112545 4269
L112497 4245
L112399 4245
L112350 4269
L112326 4294
L112302 4342
" />
</g>
<g style="fill:#000000; fill-opacity:0.0; 
stroke:#000000; stroke-width:39.3701; stroke-opacity:1; 
stroke-linecap:round; stroke-linejoin:round;">
</g>
<g style="fill:#000000; fill-opacity:0.0; 
stroke:#000000; stroke-width:59.0551; stroke-opacity:1; 
stroke-linecap:round; stroke-linejoin:round;">
<path d="M23622 77955
L23622 78742
" />
</g>
<g style="fill:#000000; fill-opacity:0.0; 
stroke:#000000; stroke-width:39.3701; stroke-opacity:1; 
stroke-linecap:round; stroke-linejoin:round;">
</g>
<g style="fill:#000000; fill-opacity:0.0; 
stroke:#000000; stroke-width:59.0551; stroke-opacity:1; 
stroke-linecap:round; stroke-linejoin:round;">
<path d="M43307 77955
L43307 78742
" />
</g>
<g style="fill:#000000; fill-opacity:0.0; 
stroke:#000000; stroke-width:39.3701; stroke-opacity:1; 
stroke-linecap:round; stroke-linejoin:round;">
</g>
<g style="fill:#000000; fill-opacity:0.0; 
stroke:#000000; stroke-width:59.0551; stroke-opacity:1; 
stroke-linecap:round; stroke-linejoin:round;">
<path d="M62992 77955
L62992 78742
" />
</g>
<g style="fill:#000000; fill-opacity:0.0; 
stroke:#000000; stroke-width:39.3701; stroke-opacity:1; 
stroke-linecap:round; stroke-linejoin:round;">
</g>
<g style="fill:#000000; fill-opacity:0.0; 
stroke:#000000; stroke-width:59.0551; stroke-opacity:1; 
stroke-linecap:round; stroke-linejoin:round;">
<path d="M82677 77955
L82677 78742
" />
</g>
<g style="fill:#000000; fill-opacity:0.0; 
stroke:#000000; stroke-width:39.3701; stroke-opacity:1; 
stroke-linecap:round; stroke-linejoin:round;">
</g>
<g style="fill:#000000; fill-opacity:0.0; 
stroke:#000000; stroke-width:59.0551; stroke-opacity:1; 
stroke-linecap:round; stroke-linejoin:round;">
<path d="M102362 77955
L102362 78742
" />
</g>
<g style="fill:#000000; fill-opacity:0.0; 
stroke:#000000; stroke-width:39.3701; stroke-opacity:1; 
stroke-linecap:round; stroke-linejoin:round;">
</g>
<g style="fill:#000000; fill-opacity:0.0; 
stroke:#000000; stroke-width:59.0551; stroke-opacity:1; 
stroke-linecap:round; stroke-linejoin:round;">
<path d="M14169 78580
L13877 78580
" />
<path d="M14023 78580
L14023 78069
L13974 78142
L13925 78190
L13877 78215
" />
</g>
<g style="fill:#000000; fill-opacity:0.0; 
stroke:#000000; stroke-width:39.3701; stroke-opacity:1; 
stroke-linecap:round; stroke-linejoin:round;">
</g>
<g style="fill:#000000; fill-opacity:0.0; 
stroke:#000000; stroke-width:59.0551; stroke-opacity:1; 
stroke-linecap:round; stroke-linejoin:round;">
<path d="M33562 78117
L33586 78093
L33635 78069
L33757 78069
L33805 78093
L33830 78117
L33854 78166
L33854 78215
L33830 78288
L33537 78580
L33854 78580
" />
</g>
<g style="fill:#000000; fill-opacity:0.0; 
stroke:#000000; stroke-width:39.3701; stroke-opacity:1; 
stroke-linecap:round; stroke-linejoin:round;">
</g>
<g style="fill:#000000; fill-opacity:0.0; 
stroke:#000000; stroke-width:59.0551; stroke-opacity:1; 
stroke-linecap:round; stroke-linejoin:round;">
<path d="M53222 78069
L53539 78069
L53368 78263
L53442 78263
L53490 78288
L53515 78312
L53539 78361
L53539 78483
L53515 78532
L53490 78556
L53442 78580
L53295 78580
L53247 78556
L53222 78532
" />
</g>
<g style="fill:#000000; fill-opacity:0.0; 
stroke:#000000; stroke-width:39.3701; stroke-opacity:1; 
stroke-linecap:round; stroke-linejoin:round;">
</g>
<g style="fill:#000000; fill-opacity:0.0; 
stroke:#000000; stroke-width:59.0551; stroke-opacity:1; 
stroke-linecap:round; stroke-linejoin:round;">
<path d="M73175 78239
L73175 78580
" />
<path d="M73053 78044
L72932 78410
L73248 78410
" />
</g>
<g style="fill:#000000; fill-opacity:0.0; 
stroke:#000000; stroke-width:39.3701; stroke-opacity:1; 
stroke-linecap:round; stroke-linejoin:round;">
</g>
<g style="fill:#000000; fill-opacity:0.0; 
stroke:#000000; stroke-width:59.0551; stroke-opacity:1; 
stroke-linecap:round; stroke-linejoin:round;">
<path d="M92885 78069
L92641 78069
L92617 78312
L92641 78288
L92690 78263
L92812 78263
L92860 78288
L92885 78312
L92909 78361
L92909 78483
L92885 78532
L92860 78556
L92812 78580
L92690 78580
L92641 78556
L92617 78532
" />
</g>
<g style="fill:#000000; fill-opacity:0.0; 
stroke:#000000; stroke-width:39.3701; stroke-opacity:1; 
stroke-linecap:round; stroke-linejoin:round;">
</g>
<g style="fill:#000000; fill-opacity:0.0; 
stroke:#000000; stroke-width:59.0551; stroke-opacity:1; 
stroke-linecap:round; stroke-linejoin:round;">
<path d="M112545 78069
L112448 78069
L112399 78093
L112375 78117
L112326 78190
L112302 78288
L112302 78483
L112326 78532
L112350 78556
L112399 78580
L112497 78580
L112545 78556
L112570 78532
L112594 78483
L112594 78361
L112570 78312
L112545 78288
L112497 78263
L112399 78263
L112350 78288
L112326 78312
L112302 78361
" />
</g>
<g style="fill:#000000; fill-opacity:0.0; 
stroke:#000000; stroke-width:39.3701; stroke-opacity:1; 
stroke-linecap:round; stroke-linejoin:round;">
</g>
<g style="fill:#000000; fill-opacity:0.0; 
stroke:#000000; stroke-width:59.0551; stroke-opacity:1; 
stroke-linecap:round; stroke-linejoin:round;">
<path d="M3937 23622
L4724 23622
" />
</g>
<g style="fill:#000000; fill-opacity:0.0; 
stroke:#000000; stroke-width:39.3701; stroke-opacity:1; 
stroke-linecap:round; stroke-linejoin:round;">
</g>
<g style="fill:#000000; fill-opacity:0.0; 
stroke:#000000; stroke-width:59.0551; stroke-opacity:1; 
stroke-linecap:round; stroke-linejoin:round;">
<path d="M3937 43307
L4724 43307
" />
</g>
<g style="fill:#000000; fill-opacity:0.0; 
stroke:#000000; stroke-width:39.3701; stroke-opacity:1; 
stroke-linecap:round; stroke-linejoin:round;">
</g>
<g style="fill:#000000; fill-opacity:0.0; 
stroke:#000000; stroke-width:59.0551; stroke-opacity:1; 
stroke-linecap:round; stroke-linejoin:round;">
<path d="M3937 62992
L4724 62992
" />
</g>
<g style="fill:#000000; fill-opacity:0.0; 
stroke:#000000; stroke-width:39.3701; stroke-opacity:1; 
stroke-linecap:round; stroke-linejoin:round;">
</g>
<g style="fill:#000000; fill-opacity:0.0; 
stroke:#000000; stroke-width:59.0551; stroke-opacity:1; 
stroke-linecap:round; stroke-linejoin:round;">
<path d="M4208 13864
L4452 13864
" />
<path d="M4160 14011
L4330 13499
L4501 14011
" />
</g>
<g style="fill:#000000; fill-opacity:0.0; 
stroke:#000000; stroke-width:39.3701; stroke-opacity:1; 
stroke-linecap:round; stroke-linejoin:round;">
</g>
<g style="fill:#000000; fill-opacity:0.0; 
stroke:#000000; stroke-width:59.0551; stroke-opacity:1; 
stroke-linecap:round; stroke-linejoin:round;">
<path d="M4367 33428
L4440 33452
L4464 33476
L4489 33525
L4489 33598
L4464 33647
L4440 33671
L4391 33696
L4196 33696
L4196 33184
L4367 33184
L4416 33208
L4440 33233
L4464 33281
L4464 33330
L4440 33379
L4416 33403
L4367 33428
L4196 33428
" />
</g>
<g style="fill:#000000; fill-opacity:0.0; 
stroke:#000000; stroke-width:39.3701; stroke-opacity:1; 
stroke-linecap:round; stroke-linejoin:round;">
</g>
<g style="fill:#000000; fill-opacity:0.0; 
stroke:#000000; stroke-width:59.0551; stroke-opacity:1; 
stroke-linecap:round; stroke-linejoin:round;">
<path d="M4489 53332
L4464 53356
L4391 53381
L4342 53381
L4269 53356
L4221 53308
L4196 53259
L4172 53161
L4172 53088
L4196 52991
L4221 52942
L4269 52893
L4342 52869
L4391 52869
L4464 52893
L4489 52918
" />
</g>
<g style="fill:#000000; fill-opacity:0.0; 
stroke:#000000; stroke-width:39.3701; stroke-opacity:1; 
stroke-linecap:round; stroke-linejoin:round;">
</g>
<g style="fill:#000000; fill-opacity:0.0; 
stroke:#000000; stroke-width:59.0551; stroke-opacity:1; 
stroke-linecap:round; stroke-linejoin:round;">
<path d="M4196 73066
L4196 72554
L4318 72554
L4391 72578
L4440 72627
L4464 72676
L4489 72773
L4489 72846
L4464 72944
L4440 72993
L4391 73041
L4318 73066
L4196 73066
" />
</g>
<g style="fill:#000000; fill-opacity:0.0; 
stroke:#000000; stroke-width:39.3701; stroke-opacity:1; 
stroke-linecap:round; stroke-linejoin:round;">
</g>
<g style="fill:#000000; fill-opacity:0.0; 
stroke:#000000; stroke-width:59.0551; stroke-opacity:1; 
stroke-linecap:round; stroke-linejoin:round;">
<path d="M112992 23622
L112205 23622
" />
</g>
<g style="fill:#000000; fill-opacity:0.0; 
stroke:#000000; stroke-width:39.3701; stroke-opacity:1; 
stroke-linecap:round; stroke-linejoin:round;">
</g>
<g style="fill:#000000; fill-opacity:0.0; 
stroke:#000000; stroke-width:59.0551; stroke-opacity:1; 
stroke-linecap:round; stroke-linejoin:round;">
<path d="M112992 43307
L112205 43307
" />
</g>
<g style="fill:#000000; fill-opacity:0.0; 
stroke:#000000; stroke-width:39.3701; stroke-opacity:1; 
stroke-linecap:round; stroke-linejoin:round;">
</g>
<g style="fill:#000000; fill-opacity:0.0; 
stroke:#000000; stroke-width:59.0551; stroke-opacity:1; 
stroke-linecap:round; stroke-linejoin:round;">
<path d="M112992 62992
L112205 62992
" />
</g>
<g style="fill:#000000; fill-opacity:0.0; 
stroke:#000000; stroke-width:39.3701; stroke-opacity:1; 
stroke-linecap:round; stroke-linejoin:round;">
</g>
<g style="fill:#000000; fill-opacity:0.0; 
stroke:#000000; stroke-width:59.0551; stroke-opacity:1; 
stroke-linecap:round; stroke-linejoin:round;">
<path d="M112477 13864
L112721 13864
" />
<path d="M112428 14011
L112599 13499
L112769 14011
" />
</g>
<g style="fill:#000000; fill-opacity:0.0; 
stroke:#000000; stroke-width:39.3701; stroke-opacity:1; 
stroke-linecap:round; stroke-linejoin:round;">
</g>
<g style="fill:#000000; fill-opacity:0.0; 
stroke:#000000; stroke-width:59.0551; stroke-opacity:1; 
stroke-linecap:round; stroke-linejoin:round;">
<path d="M112635 33428
L112708 33452
L112733 33476
L112757 33525
L112757 33598
L112733 33647
L112708 33671
L112660 33696
L112465 33696
L112465 33184
L112635 33184
L112684 33208
L112708 33233
L112733 33281
L112733 33330
L112708 33379
L112684 33403
L112635 33428
L112465 33428
" />
</g>
<g style="fill:#000000; fill-opacity:0.0; 
stroke:#000000; stroke-width:39.3701; stroke-opacity:1; 
stroke-linecap:round; stroke-linejoin:round;">
</g>
<g style="fill:#000000; fill-opacity:0.0; 
stroke:#000000; stroke-width:59.0551; stroke-opacity:1; 
stroke-linecap:round; stroke-linejoin:round;">
<path d="M112757 53332
L112733 53356
L112660 53381
L112611 53381
L112538 53356
L112489 53308
L112465 53259
L112440 53161
L112440 53088
L112465 52991
L112489 52942
L112538 52893
L112611 52869
L112660 52869
L112733 52893
L112757 52918
" />
</g>
<g style="fill:#000000; fill-opacity:0.0; 
stroke:#000000; stroke-width:39.3701; stroke-opacity:1; 
stroke-linecap:round; stroke-linejoin:round;">
</g>
<g style="fill:#000000; fill-opacity:0.0; 
stroke:#000000; stroke-width:59.0551; stroke-opacity:1; 
stroke-linecap:round; stroke-linejoin:round;">
<path d="M112465 73066
L112465 72554
L112587 72554
L112660 72578
L112708 72627
L112733 72676
L112757 72773
L112757 72846
L112733 72944
L112708 72993
L112660 73041
L112587 73066
L112465 73066
" />
</g>
<g style="fill:#000000; fill-opacity:0.0; 
stroke:#000000; stroke-width:39.3701; stroke-opacity:1; 
stroke-linecap:round; stroke-linejoin:round;">
</g>
<g style="fill:#000000; fill-opacity:0.0; 
stroke:#000000; stroke-width:59.0551; stroke-opacity:1; 
stroke-linecap:round; stroke-linejoin:round;">
<path d="M78881 76293
L78881 75703
L79022 75703
L79106 75731
L79162 75787
L79190 75843
L79219 75956
L79219 76040
L79190 76153
L79162 76209
L79106 76265
L79022 76293
L78881 76293
" />
<path d="M79725 76293
L79725 75984
L79697 75928
L79640 75899
L79528 75899
L79472 75928
" />
<path d="M79725 76265
L79669 76293
L79528 76293
L79472 76265
L79444 76209
L79444 76153
L79472 76096
L79528 76068
L79669 76068
L79725 76040
" />
<path d="M79922 75899
L80147 75899
" />
<path d="M80006 75703
L80006 76209
L80034 76265
L80090 76293
L80147 76293
" />
<path d="M80568 76265
L80512 76293
L80400 76293
L80343 76265
L80315 76209
L80315 75984
L80343 75928
L80400 75899
L80512 75899
L80568 75928
L80597 75984
L80597 76040
L80315 76096
" />
<path d="M80850 76237
L80878 76265
L80850 76293
L80822 76265
L80850 76237
L80850 76293
" />
<path d="M80850 75928
L80878 75956
L80850 75984
L80822 75956
L80850 75928
L80850 75984
" />
</g>
<g style="fill:#000000; fill-opacity:0.0; 
stroke:#000000; stroke-width:39.3701; stroke-opacity:1; 
stroke-linecap:round; stroke-linejoin:round;">
</g>
<g style="fill:#000000; fill-opacity:0.0; 
stroke:#000000; stroke-width:59.0551; stroke-opacity:1; 
stroke-linecap:round; stroke-linejoin:round;">
<path d="M69685 76577
L112205 76577
" />
</g>
<g style="fill:#000000; fill-opacity:0.0; 
stroke:#000000; stroke-width:39.3701; stroke-opacity:1; 
stroke-linecap:round; stroke-linejoin:round;">
</g>
<g style="fill:#000000; fill-opacity:0.0; 
stroke:#000000; stroke-width:59.0551; stroke-opacity:1; 
stroke-linecap:round; stroke-linejoin:round;">
<path d="M70220 77395
L70220 76805
" />
<path d="M70557 77395
L70304 77058
" />
<path d="M70557 76805
L70220 77142
" />
<path d="M70810 77395
L70810 77002
" />
<path d="M70810 76805
L70782 76833
L70810 76861
L70838 76833
L70810 76805
L70810 76861
" />
<path d="M71429 77339
L71401 77367
L71316 77395
L71260 77395
L71176 77367
L71120 77311
L71091 77255
L71063 77142
L71063 77058
L71091 76946
L71120 76889
L71176 76833
L71260 76805
L71316 76805
L71401 76833
L71429 76861
" />
<path d="M71935 77395
L71935 77086
L71907 77030
L71851 77002
L71738 77002
L71682 77030
" />
<path d="M71935 77367
L71879 77395
L71738 77395
L71682 77367
L71654 77311
L71654 77255
L71682 77199
L71738 77171
L71879 77171
L71935 77142
" />
<path d="M72469 77395
L72469 76805
" />
<path d="M72469 77367
L72413 77395
L72301 77395
L72244 77367
L72216 77339
L72188 77283
L72188 77114
L72216 77058
L72244 77030
L72301 77002
L72413 77002
L72469 77030
" />
<path d="M73201 77086
L73397 77086
" />
<path d="M73482 77395
L73201 77395
L73201 76805
L73482 76805
" />
<path d="M73735 77339
L73763 77367
L73735 77395
L73707 77367
L73735 77339
L73735 77395
" />
<path d="M74016 77395
L74016 76805
L74157 76805
L74241 76833
L74297 76889
L74325 76946
L74354 77058
L74354 77142
L74325 77255
L74297 77311
L74241 77367
L74157 77395
L74016 77395
" />
<path d="M74607 77339
L74635 77367
L74607 77395
L74579 77367
L74607 77339
L74607 77395
" />
<path d="M74860 77227
L75141 77227
" />
<path d="M74804 77395
L75000 76805
L75197 77395
" />
<path d="M75394 77339
L75422 77367
L75394 77395
L75366 77367
L75394 77339
L75394 77395
" />
<path d="M76575 77395
L76575 76805
" />
<path d="M76631 77171
L76800 77395
" />
<path d="M76800 77002
L76575 77227
" />
<path d="M77053 77395
L77053 77002
" />
<path d="M77053 76805
L77025 76833
L77053 76861
L77081 76833
L77053 76805
L77053 76861
" />
<path d="M77588 77367
L77531 77395
L77419 77395
L77363 77367
L77334 77339
L77306 77283
L77306 77114
L77334 77058
L77363 77030
L77419 77002
L77531 77002
L77588 77030
" />
<path d="M78094 77395
L78094 77086
L78066 77030
L78009 77002
L77897 77002
L77841 77030
" />
<path d="M78094 77367
L78037 77395
L77897 77395
L77841 77367
L77813 77311
L77813 77255
L77841 77199
L77897 77171
L78037 77171
L78094 77142
" />
<path d="M78628 77395
L78628 76805
" />
<path d="M78628 77367
L78572 77395
L78459 77395
L78403 77367
L78375 77339
L78347 77283
L78347 77114
L78375 77058
L78403 77030
L78459 77002
L78572 77002
L78628 77030
" />
<path d="M79528 77620
L79500 77592
L79444 77508
L79415 77452
L79387 77367
L79359 77227
L79359 77114
L79387 76974
L79415 76889
L79444 76833
L79500 76749
L79528 76721
" />
<path d="M79725 76861
L79753 76833
L79809 76805
L79950 76805
L80006 76833
L80034 76861
L80062 76917
L80062 76974
L80034 77058
L79697 77395
L80062 77395
" />
<path d="M80428 76805
L80484 76805
L80540 76833
L80568 76861
L80597 76917
L80625 77030
L80625 77171
L80597 77283
L80568 77339
L80540 77367
L80484 77395
L80428 77395
L80372 77367
L80343 77339
L80315 77283
L80287 77171
L80287 77030
L80315 76917
L80343 76861
L80372 76833
L80428 76805
" />
<path d="M81187 77395
L80850 77395
" />
<path d="M81018 77395
L81018 76805
L80962 76889
L80906 76946
L80850 76974
" />
<path d="M81693 77002
L81693 77395
" />
<path d="M81553 76777
L81412 77199
L81778 77199
" />
<path d="M82003 77171
L82453 77171
" />
<path d="M82734 77002
L82734 77508
L82706 77564
L82649 77592
L82621 77592
" />
<path d="M82734 76805
L82706 76833
L82734 76861
L82762 76833
L82734 76805
L82734 76861
" />
<path d="M83268 77395
L83268 77086
L83240 77030
L83184 77002
L83071 77002
L83015 77030
" />
<path d="M83268 77367
L83212 77395
L83071 77395
L83015 77367
L82987 77311
L82987 77255
L83015 77199
L83071 77171
L83212 77171
L83268 77142
" />
<path d="M83549 77002
L83549 77395
" />
<path d="M83549 77058
L83577 77030
L83634 77002
L83718 77002
L83774 77030
L83802 77086
L83802 77395
" />
<path d="M84084 77171
L84534 77171
" />
<path d="M84787 76861
L84815 76833
L84871 76805
L85012 76805
L85068 76833
L85096 76861
L85124 76917
L85124 76974
L85096 77058
L84759 77395
L85124 77395
" />
<path d="M85658 76805
L85377 76805
L85349 77086
L85377 77058
L85433 77030
L85574 77030
L85630 77058
L85658 77086
L85687 77142
L85687 77283
L85658 77339
L85630 77367
L85574 77395
L85433 77395
L85377 77367
L85349 77339
" />
<path d="M85883 77620
L85912 77592
L85968 77508
L85996 77452
L86024 77367
L86052 77227
L86052 77114
L86024 76974
L85996 76889
L85968 76833
L85912 76749
L85883 76721
" />
<path d="M86333 77171
L86783 77171
" />
<path d="M87064 77002
L87064 77592
" />
<path d="M87064 77030
L87121 77002
L87233 77002
L87289 77030
L87318 77058
L87346 77114
L87346 77283
L87318 77339
L87289 77367
L87233 77395
L87121 77395
L87064 77367
" />
<path d="M87599 77395
L87599 77002
" />
<path d="M87599 77114
L87627 77058
L87655 77030
L87711 77002
L87768 77002
" />
<path d="M88049 77395
L87992 77367
L87964 77339
L87936 77283
L87936 77114
L87964 77058
L87992 77030
L88049 77002
L88133 77002
L88189 77030
L88217 77058
L88246 77114
L88246 77283
L88217 77339
L88189 77367
L88133 77395
L88049 77395
" />
<path d="M88752 77395
L88752 76805
" />
<path d="M88752 77367
L88696 77395
L88583 77395
L88527 77367
L88499 77339
L88471 77283
L88471 77114
L88499 77058
L88527 77030
L88583 77002
L88696 77002
L88752 77030
" />
<path d="M89286 77002
L89286 77395
" />
<path d="M89033 77002
L89033 77311
L89061 77367
L89117 77395
L89202 77395
L89258 77367
L89286 77339
" />
<path d="M89820 77367
L89764 77395
L89652 77395
L89595 77367
L89567 77339
L89539 77283
L89539 77114
L89567 77058
L89595 77030
L89652 77002
L89764 77002
L89820 77030
" />
<path d="M89989 77002
L90214 77002
" />
<path d="M90073 76805
L90073 77311
L90102 77367
L90158 77395
L90214 77395
" />
</g>
<g style="fill:#000000; fill-opacity:0.0; 
stroke:#000000; stroke-width:39.3701; stroke-opacity:1; 
stroke-linecap:round; stroke-linejoin:round;">
</g>
<g style="fill:#000000; fill-opacity:0.0; 
stroke:#000000; stroke-width:59.0551; stroke-opacity:1; 
stroke-linecap:round; stroke-linejoin:round;">
<path d="M69685 75396
L112205 75396
" />
</g>
<g style="fill:#000000; fill-opacity:0.0; 
stroke:#000000; stroke-width:39.3701; stroke-opacity:1; 
stroke-linecap:round; stroke-linejoin:round;">
</g>
<g style="fill:#000000; fill-opacity:0.0; 
stroke:#000000; stroke-width:118.11; stroke-opacity:1; 
stroke-linecap:round; stroke-linejoin:round;">
<path d="M104022 76293
L103825 76012
" />
<path d="M103684 76293
L103684 75703
L103909 75703
L103965 75731
L103994 75759
L104022 75815
L104022 75899
L103994 75956
L103965 75984
L103909 76012
L103684 76012
" />
<path d="M104500 76265
L104444 76293
L104331 76293
L104275 76265
L104247 76209
L104247 75984
L104275 75928
L104331 75899
L104444 75899
L104500 75928
L104528 75984
L104528 76040
L104247 76096
" />
<path d="M104725 75899
L104865 76293
L105006 75899
" />
<path d="M105231 76237
L105259 76265
L105231 76293
L105203 76265
L105231 76237
L105231 76293
" />
<path d="M105231 75928
L105259 75956
L105231 75984
L105203 75956
L105231 75928
L105231 75984
" />
</g>
<g style="fill:#000000; fill-opacity:0.0; 
stroke:#000000; stroke-width:39.3701; stroke-opacity:1; 
stroke-linecap:round; stroke-linejoin:round;">
</g>
<g style="fill:#000000; fill-opacity:0.0; 
stroke:#000000; stroke-width:59.0551; stroke-opacity:1; 
stroke-linecap:round; stroke-linejoin:round;">
<path d="M70192 76265
L70276 76293
L70417 76293
L70473 76265
L70501 76237
L70529 76181
L70529 76124
L70501 76068
L70473 76040
L70417 76012
L70304 75984
L70248 75956
L70220 75928
L70192 75871
L70192 75815
L70220 75759
L70248 75731
L70304 75703
L70445 75703
L70529 75731
" />
<path d="M70782 76293
L70782 75899
" />
<path d="M70782 75703
L70754 75731
L70782 75759
L70810 75731
L70782 75703
L70782 75759
" />
<path d="M71007 75899
L71316 75899
L71007 76293
L71316 76293
" />
<path d="M71766 76265
L71710 76293
L71598 76293
L71541 76265
L71513 76209
L71513 75984
L71541 75928
L71598 75899
L71710 75899
L71766 75928
L71795 75984
L71795 76040
L71513 76096
" />
<path d="M72048 76237
L72076 76265
L72048 76293
L72019 76265
L72048 76237
L72048 76293
" />
<path d="M72048 75928
L72076 75956
L72048 75984
L72019 75956
L72048 75928
L72048 75984
" />
<path d="M72751 76124
L73032 76124
" />
<path d="M72694 76293
L72891 75703
L73088 76293
" />
<path d="M73538 75899
L73538 76293
" />
<path d="M73397 75674
L73257 76096
L73622 76096
" />
</g>
<g style="fill:#000000; fill-opacity:0.0; 
stroke:#000000; stroke-width:39.3701; stroke-opacity:1; 
stroke-linecap:round; stroke-linejoin:round;">
</g>
<g style="fill:#000000; fill-opacity:0.0; 
stroke:#000000; stroke-width:59.0551; stroke-opacity:1; 
stroke-linecap:round; stroke-linejoin:round;">
<path d="M103684 77395
L103684 76805
" />
<path d="M104219 77395
L104219 76805
" />
<path d="M104219 77367
L104162 77395
L104050 77395
L103994 77367
L103965 77339
L103937 77283
L103937 77114
L103965 77058
L103994 77030
L104050 77002
L104162 77002
L104219 77030
" />
<path d="M104500 77339
L104528 77367
L104500 77395
L104472 77367
L104500 77339
L104500 77395
" />
<path d="M104500 77030
L104528 77058
L104500 77086
L104472 77058
L104500 77030
L104500 77086
" />
<path d="M105540 77395
L105203 77395
" />
<path d="M105372 77395
L105372 76805
L105315 76889
L105259 76946
L105203 76974
" />
<path d="M106215 76777
L105709 77536
" />
<path d="M106721 77395
L106384 77395
" />
<path d="M106553 77395
L106553 76805
L106496 76889
L106440 76946
L106384 76974
" />
</g>
<g style="fill:#000000; fill-opacity:0.0; 
stroke:#000000; stroke-width:39.3701; stroke-opacity:1; 
stroke-linecap:round; stroke-linejoin:round;">
</g>
<g style="fill:#000000; fill-opacity:0.0; 
stroke:#000000; stroke-width:59.0551; stroke-opacity:1; 
stroke-linecap:round; stroke-linejoin:round;">
<path d="M69685 73821
L112205 73821
" />
</g>
<g style="fill:#000000; fill-opacity:0.0; 
stroke:#000000; stroke-width:39.3701; stroke-opacity:1; 
stroke-linecap:round; stroke-linejoin:round;">
</g>
<g style="fill:#000000; fill-opacity:0.0; 
stroke:#000000; stroke-width:157.48; stroke-opacity:1; 
stroke-linecap:round; stroke-linejoin:round;">
<path d="M70257 74099
L70707 74099
" />
<path d="M70384 74886
L70482 74099
" />
<path d="M70871 74886
L70937 74361
" />
<path d="M70970 74099
L70927 74136
L70960 74174
L71002 74136
L70970 74099
L70960 74174
" />
<path d="M71199 74361
L71499 74361
" />
<path d="M71345 74099
L71260 74774
L71288 74849
L71359 74886
L71434 74886
" />
<path d="M71809 74886
L71738 74849
L71710 74774
L71795 74099
" />
<path d="M72413 74849
L72334 74886
L72184 74886
L72113 74849
L72085 74774
L72123 74474
L72169 74399
L72249 74361
L72399 74361
L72469 74399
L72498 74474
L72488 74549
L72104 74624
" />
<path d="M72793 74811
L72826 74849
L72783 74886
L72751 74849
L72793 74811
L72783 74886
" />
<path d="M72844 74399
L72877 74436
L72835 74474
L72802 74436
L72844 74399
L72835 74474
" />
</g>
<g style="fill:#000000; fill-opacity:0.0; 
stroke:#000000; stroke-width:39.3701; stroke-opacity:1; 
stroke-linecap:round; stroke-linejoin:round;">
</g>
<g style="fill:#000000; fill-opacity:0.0; 
stroke:#000000; stroke-width:59.0551; stroke-opacity:1; 
stroke-linecap:round; stroke-linejoin:round;">
<path d="M70417 73070
L70220 73070
" />
<path d="M70220 73380
L70220 72789
L70501 72789
" />
<path d="M70726 73380
L70726 72986
" />
<path d="M70726 72789
L70698 72817
L70726 72845
L70754 72817
L70726 72789
L70726 72845
" />
<path d="M71091 73380
L71035 73352
L71007 73295
L71007 72789
" />
<path d="M71541 73352
L71485 73380
L71373 73380
L71316 73352
L71288 73295
L71288 73070
L71316 73014
L71373 72986
L71485 72986
L71541 73014
L71570 73070
L71570 73127
L71288 73183
" />
<path d="M71823 73323
L71851 73352
L71823 73380
L71795 73352
L71823 73323
L71823 73380
" />
<path d="M71823 73014
L71851 73042
L71823 73070
L71795 73042
L71823 73014
L71823 73070
" />
<path d="M72554 73380
L72554 72789
" />
<path d="M72554 73014
L72610 72986
L72723 72986
L72779 73014
L72807 73042
L72835 73099
L72835 73267
L72807 73323
L72779 73352
L72723 73380
L72610 73380
L72554 73352
" />
<path d="M73341 72986
L73341 73380
" />
<path d="M73088 72986
L73088 73295
L73116 73352
L73172 73380
L73257 73380
L73313 73352
L73341 73323
" />
<path d="M73538 72986
L73763 72986
" />
<path d="M73622 72789
L73622 73295
L73651 73352
L73707 73380
L73763 73380
" />
<path d="M73876 72986
L74100 72986
" />
<path d="M73960 72789
L73960 73295
L73988 73352
L74044 73380
L74100 73380
" />
<path d="M74382 73380
L74325 73352
L74297 73323
L74269 73267
L74269 73099
L74297 73042
L74325 73014
L74382 72986
L74466 72986
L74522 73014
L74550 73042
L74579 73099
L74579 73267
L74550 73323
L74522 73352
L74466 73380
L74382 73380
" />
<path d="M74832 72986
L74832 73380
" />
<path d="M74832 73042
L74860 73014
L74916 72986
L75000 72986
L75057 73014
L75085 73070
L75085 73380
" />
<path d="M75225 73436
L75675 73436
" />
<path d="M75816 72986
L75816 73577
" />
<path d="M75816 73014
L75872 72986
L75985 72986
L76041 73014
L76069 73042
L76097 73099
L76097 73267
L76069 73323
L76041 73352
L75985 73380
L75872 73380
L75816 73352
" />
<path d="M76350 73380
L76350 72986
" />
<path d="M76350 73099
L76378 73042
L76406 73014
L76463 72986
L76519 72986
" />
<path d="M76941 73352
L76885 73380
L76772 73380
L76716 73352
L76688 73295
L76688 73070
L76716 73014
L76772 72986
L76885 72986
L76941 73014
L76969 73070
L76969 73127
L76688 73183
" />
<path d="M77194 73352
L77250 73380
L77363 73380
L77419 73352
L77447 73295
L77447 73267
L77419 73211
L77363 73183
L77278 73183
L77222 73155
L77194 73099
L77194 73070
L77222 73014
L77278 72986
L77363 72986
L77419 73014
" />
<path d="M77672 73352
L77728 73380
L77841 73380
L77897 73352
L77925 73295
L77925 73267
L77897 73211
L77841 73183
L77756 73183
L77700 73155
L77672 73099
L77672 73070
L77700 73014
L77756 72986
L77841 72986
L77897 73014
" />
<path d="M78403 73352
L78347 73380
L78234 73380
L78178 73352
L78150 73295
L78150 73070
L78178 73014
L78234 72986
L78347 72986
L78403 73014
L78431 73070
L78431 73127
L78150 73183
" />
<path d="M78684 73380
L78684 72986
" />
<path d="M78684 73099
L78712 73042
L78741 73014
L78797 72986
L78853 72986
" />
<path d="M79050 73323
L79078 73352
L79050 73380
L79022 73352
L79050 73323
L79050 73380
" />
<path d="M79331 73380
L79331 72789
" />
<path d="M79387 73155
L79556 73380
" />
<path d="M79556 72986
L79331 73211
" />
<path d="M79809 73380
L79809 72986
" />
<path d="M79809 72789
L79781 72817
L79809 72845
L79837 72817
L79809 72789
L79809 72845
" />
<path d="M80343 73352
L80287 73380
L80175 73380
L80118 73352
L80090 73323
L80062 73267
L80062 73099
L80090 73042
L80118 73014
L80175 72986
L80287 72986
L80343 73014
" />
<path d="M80850 73380
L80850 73070
L80822 73014
L80765 72986
L80653 72986
L80597 73014
" />
<path d="M80850 73352
L80793 73380
L80653 73380
L80597 73352
L80568 73295
L80568 73239
L80597 73183
L80653 73155
L80793 73155
L80850 73127
" />
<path d="M81384 73380
L81384 72789
" />
<path d="M81384 73352
L81328 73380
L81215 73380
L81159 73352
L81131 73323
L81103 73267
L81103 73099
L81131 73042
L81159 73014
L81215 72986
L81328 72986
L81384 73014
" />
<path d="M81525 73436
L81974 73436
" />
<path d="M82115 72986
L82115 73577
" />
<path d="M82115 73014
L82171 72986
L82284 72986
L82340 73014
L82368 73042
L82396 73099
L82396 73267
L82368 73323
L82340 73352
L82284 73380
L82171 73380
L82115 73352
" />
<path d="M82903 73352
L82846 73380
L82734 73380
L82678 73352
L82649 73323
L82621 73267
L82621 73099
L82649 73042
L82678 73014
L82734 72986
L82846 72986
L82903 73014
" />
<path d="M83156 73380
L83156 72789
" />
<path d="M83156 73014
L83212 72986
L83324 72986
L83381 73014
L83409 73042
L83437 73099
L83437 73267
L83409 73323
L83381 73352
L83324 73380
L83212 73380
L83156 73352
" />
</g>
<g style="fill:#000000; fill-opacity:0.0; 
stroke:#000000; stroke-width:39.3701; stroke-opacity:1; 
stroke-linecap:round; stroke-linejoin:round;">
</g>
<g style="fill:#000000; fill-opacity:0.0; 
stroke:#000000; stroke-width:59.0551; stroke-opacity:1; 
stroke-linecap:round; stroke-linejoin:round;">
<path d="M69685 71459
L112205 71459
" />
</g>
<g style="fill:#000000; fill-opacity:0.0; 
stroke:#000000; stroke-width:39.3701; stroke-opacity:1; 
stroke-linecap:round; stroke-linejoin:round;">
</g>
<g style="fill:#000000; fill-opacity:0.0; 
stroke:#000000; stroke-width:59.0551; stroke-opacity:1; 
stroke-linecap:round; stroke-linejoin:round;">
<path d="M70192 72289
L70276 72317
L70417 72317
L70473 72289
L70501 72260
L70529 72204
L70529 72148
L70501 72092
L70473 72064
L70417 72036
L70304 72007
L70248 71979
L70220 71951
L70192 71895
L70192 71839
L70220 71782
L70248 71754
L70304 71726
L70445 71726
L70529 71754
" />
<path d="M70782 72317
L70782 71726
" />
<path d="M71035 72317
L71035 72007
L71007 71951
L70951 71923
L70867 71923
L70810 71951
L70782 71979
" />
<path d="M71541 72289
L71485 72317
L71373 72317
L71316 72289
L71288 72232
L71288 72007
L71316 71951
L71373 71923
L71485 71923
L71541 71951
L71570 72007
L71570 72064
L71288 72120
" />
<path d="M72048 72289
L71991 72317
L71879 72317
L71823 72289
L71795 72232
L71795 72007
L71823 71951
L71879 71923
L71991 71923
L72048 71951
L72076 72007
L72076 72064
L71795 72120
" />
<path d="M72244 71923
L72469 71923
" />
<path d="M72329 71726
L72329 72232
L72357 72289
L72413 72317
L72469 72317
" />
<path d="M72666 72260
L72694 72289
L72666 72317
L72638 72289
L72666 72260
L72666 72317
" />
<path d="M72666 71951
L72694 71979
L72666 72007
L72638 71979
L72666 71951
L72666 72007
" />
</g>
<g style="fill:#000000; fill-opacity:0.0; 
stroke:#000000; stroke-width:39.3701; stroke-opacity:1; 
stroke-linecap:round; stroke-linejoin:round;">
</g>
<g style="fill:#000000; fill-opacity:0.0; 
stroke:#000000; stroke-width:59.0551; stroke-opacity:1; 
stroke-linecap:round; stroke-linejoin:round;">
<path d="M77559 75396
L77559 76577
" />
</g>
<g style="fill:#000000; fill-opacity:0.0; 
stroke:#000000; stroke-width:39.3701; stroke-opacity:1; 
stroke-linecap:round; stroke-linejoin:round;">
</g>
<g style="fill:#000000; fill-opacity:0.0; 
stroke:#000000; stroke-width:59.0551; stroke-opacity:1; 
stroke-linecap:round; stroke-linejoin:round;">
<path d="M102756 75396
L102756 77955
" />
</g>
<g style="fill:#008400; fill-opacity:0.0; 
stroke:#008400; stroke-width:118.11; stroke-opacity:1; 
stroke-linecap:round; stroke-linejoin:round;">
<path d="M110393 47307
L110590 47307
" />
<path d="M110590 47617
L110590 47026
L110309 47026
" />
<path d="M110084 47617
L110084 47223
" />
<path d="M110084 47335
L110056 47279
L110027 47251
L109971 47223
L109915 47223
" />
<path d="M109634 47617
L109690 47589
L109718 47560
L109746 47504
L109746 47335
L109718 47279
L109690 47251
L109634 47223
L109549 47223
L109493 47251
L109465 47279
L109437 47335
L109437 47504
L109465 47560
L109493 47589
L109549 47617
L109634 47617
" />
<path d="M109184 47617
L109184 47223
" />
<path d="M109184 47279
L109156 47251
L109099 47223
L109015 47223
L108959 47251
L108931 47307
L108931 47617
" />
<path d="M108931 47307
L108903 47251
L108846 47223
L108762 47223
L108706 47251
L108678 47307
L108678 47617
" />
<path d="M107609 47560
L107637 47589
L107721 47617
L107778 47617
L107862 47589
L107918 47532
L107946 47476
L107975 47364
L107975 47279
L107946 47167
L107918 47110
L107862 47054
L107778 47026
L107721 47026
L107637 47054
L107609 47082
" />
<path d="M107440 47026
L107103 47026
" />
<path d="M107272 47617
L107272 47026
" />
<path d="M106625 47617
L106906 47617
L106906 47026
" />
<path d="M110103 52122
L110103 51784
" />
<path d="M109512 51953
L110103 51953
" />
<path d="M109512 51503
L109540 51559
L109569 51587
L109625 51615
L109794 51615
L109850 51587
L109878 51559
L109906 51503
L109906 51418
L109878 51362
L109850 51334
L109794 51306
L109625 51306
L109569 51334
L109540 51362
L109512 51418
L109512 51503
" />
<path d="M109512 50603
L110103 50603
L110103 50378
L110075 50322
L110047 50294
L109990 50265
L109906 50265
L109850 50294
L109822 50322
L109794 50378
L109794 50603
" />
<path d="M109512 49928
L109540 49984
L109569 50012
L109625 50041
L109794 50041
L109850 50012
L109878 49984
L109906 49928
L109906 49844
L109878 49787
L109850 49759
L109794 49731
L109625 49731
L109569 49759
L109540 49787
L109512 49844
L109512 49928
" />
<path d="M109906 49562
L109906 49337
" />
<path d="M110103 49478
L109597 49478
L109540 49450
L109512 49394
L109512 49337
" />
</g>
<g style="fill:#840000; fill-opacity:0.0; 
stroke:#840000; stroke-width:39.3701; stroke-opacity:1; 
stroke-linecap:round; stroke-linejoin:round;">
</g>
<g style="fill:#840000; fill-opacity:1.0; 
stroke:#840000; stroke-width:39.3701; stroke-opacity:1; 
stroke-linecap:round; stroke-linejoin:round;">
<circle cx="86870" cy="54140" r="255.315" /> 
<circle cx="85870" cy="54140" r="255.315" /> 
<circle cx="95300" cy="64100" r="275.815" /> 
<circle cx="95300" cy="63100" r="275.815" /> 
<circle cx="98900" cy="54289" r="275.815" /> 
<circle cx="98900" cy="52911" r="275.815" /> 
<polyline style="fill-rule:evenodd;"
points="84605,67244
84605,67755
84094,67755
84094,67244
84605,67244
" /> 
<circle cx="87350" cy="67500" r="255.315" /> 
<polyline style="fill-rule:evenodd;"
points="104555,63844
104555,64355
104044,64355
104044,63844
104555,63844
" /> 
<circle cx="107300" cy="64100" r="255.315" /> 
</g>
<g style="fill:#840000; fill-opacity:1.0; 
stroke:#840000; stroke-width:591; stroke-opacity:1; 
stroke-linecap:round; stroke-linejoin:round;">
</g>
<g style="fill:#840000; fill-opacity:0.0; 
stroke:#840000; stroke-width:591; stroke-opacity:1; 
stroke-linecap:round; stroke-linejoin:round;">
<path d="M100653 65100
L101046 65100
" />
<path d="M100653 64100
L101046 64100
" />
<path d="M100653 66100
L101046 66100
" />
</g>
<g style="fill:#840000; fill-opacity:0.0; 
stroke:#840000; stroke-width:39.3701; stroke-opacity:1; 
stroke-linecap:round; stroke-linejoin:round;">
</g>
<g style="fill:#840000; fill-opacity:1.0; 
stroke:#840000; stroke-width:39.3701; stroke-opacity:1; 
stroke-linecap:round; stroke-linejoin:round;">
<circle cx="85880" cy="49740" r="255.315" /> 
<circle cx="85880" cy="52740" r="255.315" /> 
<circle cx="86860" cy="49740" r="255.315" /> 
<circle cx="86860" cy="52740" r="255.315" /> 
<circle cx="95300" cy="52900" r="255.315" /> 
<circle cx="95300" cy="55900" r="255.315" /> 
<circle cx="95300" cy="56830" r="255.315" /> 
<circle cx="95300" cy="59830" r="255.315" /> 
<circle cx="94000" cy="65100" r="255.315" /> 
<circle cx="91000" cy="65100" r="255.315" /> 
<polyline style="fill-rule:evenodd;"
points="88994,54644
89505,54644
89505,55155
88994,55155
88994,54644
" /> 
<circle cx="89250" cy="55900" r="255.315" /> 
<circle cx="89250" cy="56900" r="255.315" /> 
<circle cx="89250" cy="57900" r="255.315" /> 
<circle cx="92250" cy="57900" r="255.315" /> 
<circle cx="92250" cy="56900" r="255.315" /> 
<circle cx="92250" cy="55900" r="255.315" /> 
<circle cx="92250" cy="54900" r="255.315" /> 
<circle cx="108262" cy="60637" r="363.815" /> 
<circle cx="103538" cy="60637" r="363.815" /> 
<circle cx="105900" cy="61425" r="363.815" /> 
<circle cx="103538" cy="55835" r="363.815" /> 
<circle cx="108262" cy="55835" r="363.815" /> 
<circle cx="85880" cy="65277.6" r="275.591" /> 
<circle cx="84895.7" cy="64096.5" r="275.591" /> 
<circle cx="86864.3" cy="64096.5" r="275.591" /> 
<circle cx="85880" cy="56222.4" r="275.591" /> 
<circle cx="105850" cy="47250" r="205.315" /> 
<circle cx="103540" cy="50610" r="205.315" /> 
<circle cx="108260" cy="50610" r="205.315" /> 
<polyline style="fill-rule:evenodd;"
points="98180,48721
99519,48721
99519,50060
98180,50060
98180,48721
" /> 
<polyline style="fill-rule:evenodd;"
points="98180,46359
99519,46359
99519,47698
98180,47698
98180,46359
" /> 
<polyline style="fill-rule:evenodd;"
points="96330,47540
97669,47540
97669,48879
96330,48879
96330,47540
" /> 
<circle cx="88350" cy="61100" r="373.815" /> 
<circle cx="88350" cy="65100" r="373.815" /> 
<circle cx="96600" cy="54300" r="373.815" /> 
<circle cx="96600" cy="52000" r="373.815" /> 
</g>
<g style="fill:#008400; fill-opacity:1.0; 
stroke:#008400; stroke-width:590.551; stroke-opacity:1; 
stroke-linecap:round; stroke-linejoin:round;">
</g>
<g style="fill:#008400; fill-opacity:0.0; 
stroke:#008400; stroke-width:590.551; stroke-opacity:1; 
stroke-linecap:round; stroke-linejoin:round;">
<path d="M86870 54140
L86870 54130
" />
<path d="M86870 54130
L87600 53400
" />
<path d="M90400 55900
L89250 55900
" />
<path d="M90400 53400
L90400 55900
" />
<path d="M87600 53400
L90400 53400
" />
<path d="M86860 52740
L86860 54130
" />
<path d="M86860 54130
L86870 54140
" />
<path d="M86870 52750
L86860 52740
" />
<path d="M86870 52750
L86860 52740
" />
<path d="M85880 52740
L85880 54130
" />
<path d="M85880 54130
L85870 54140
" />
<path d="M85880 56222
L85880 54150
" />
<path d="M85880 54150
L85870 54140
" />
<path d="M85880 54130
L85870 54140
" />
<path d="M96600 54300
L98889 54300
" />
<path d="M98889 54300
L98900 54289
" />
<path d="M100850 64100
L98850 64100
" />
<path d="M86864 64096
L86903 64096
" />
<path d="M87350 54900
L89250 54900
" />
<path d="M86903 64096
L87350 63650
" />
<path d="M87350 63650
L87350 54900
" />
<path d="M85880 65277
L85880 65080
" />
<path d="M85880 65080
L86864 64096
" />
<path d="M87350 67500
L87350 64582
" />
<path d="M87350 64582
L86864 64096
" />
<path d="M98900 54289
L98900 64050
" />
<path d="M98900 64050
L98850 64100
" />
<path d="M98850 64100
L95300 64100
" />
<path d="M86864 64096
L95296 64096
" />
<path d="M95296 64096
L95300 64100
" />
<path d="M86867 64100
L86864 64096
" />
<path d="M100840 64090
L100850 64100
" />
<path d="M95300 59830
L95300 63100
" />
<path d="M93680 59830
L95300 59830
" />
<path d="M92250 56900
L93680 56900
" />
<path d="M93680 56900
L93680 59830
" />
<path d="M85880 49740
L86860 49740
" />
<path d="M103550 64000
L103550 60649
" />
<path d="M104300 64100
L103650 64100
" />
<path d="M103650 64100
L103550 64000
" />
<path d="M103550 60649
L103538 60637
" />
<path d="M102100 52922
L102100 60650
" />
<path d="M102100 60650
L102113 60637
" />
<path d="M102113 60637
L103538 60637
" />
<path d="M98900 52911
L102089 52911
" />
<path d="M102089 52911
L102100 52922
" />
<path d="M95300 52900
L92250 52900
" />
<path d="M92250 52900
L92250 52950
" />
<path d="M91400 54900
L92250 54900
" />
<path d="M89250 57900
L91400 57900
" />
<path d="M91400 57900
L91400 54900
" />
<path d="M92250 54900
L92250 52950
" />
<path d="M92240 49740
L86860 49740
" />
<path d="M92250 52950
L92250 49750
" />
<path d="M92250 49750
L92240 49740
" />
<path d="M84895 64096
L84895 64095
" />
<path d="M84300 49750
L84310 49740
" />
<path d="M84310 49740
L85880 49740
" />
<path d="M84895 64095
L84300 63500
" />
<path d="M84300 63500
L84300 49750
" />
<path d="M84350 67500
L84350 64642
" />
<path d="M84350 64642
L84895 64096
" />
<path d="M95300 52900
L98889 52900
" />
<path d="M98889 52900
L98900 52911
" />
<path d="M98850 52861
L98900 52911
" />
<path d="M98850 49391
L98850 52861
" />
<path d="M107300 64100
L107300 66100
" />
<path d="M107300 66100
L100850 66100
" />
<path d="M107250 64150
L107300 64100
" />
<path d="M108262 64088
L108262 60637
" />
<path d="M107300 64100
L108250 64100
" />
<path d="M108250 64100
L108262 64088
" />
<path d="M108270 60645
L108262 60637
" />
<path d="M105900 61425
L105900 47300
" />
<path d="M105900 47300
L105850 47250
" />
<path d="M103538 55835
L103538 50612
" />
<path d="M103538 50612
L103540 50610
" />
<path d="M94000 65100
L100850 65100
" />
<path d="M95300 56830
L95300 55900
" />
<path d="M92250 55900
L95300 55900
" />
<path d="M88350 65100
L91000 65100
" />
<path d="M108260 55833
L108262 55835
" />
<path d="M108262 50612
L108260 50610
" />
<path d="M108260 55833
L108262 55835
" />
<path d="M108260 50610
L108260 55833
" />
<path d="M88350 57800
L88350 61100
" />
<path d="M88350 56900
L88350 57800
" />
<path d="M89250 56900
L88350 56900
" />
<path d="M97000 48210
L97000 51600
" />
<path d="M97000 51600
L96600 52000
" />
<path d="M97669 48210
L98850 47029
" />
<path d="M97000 48210
L97669 48210
" />
</g>
<g style="fill:#FFFFFF; fill-opacity:0.0; 
stroke:#FFFFFF; stroke-width:39.3701; stroke-opacity:1; 
stroke-linecap:round; stroke-linejoin:round;">
</g>
<g style="fill:#FFFFFF; fill-opacity:1.0; 
stroke:#FFFFFF; stroke-width:39.3701; stroke-opacity:1; 
stroke-linecap:round; stroke-linejoin:round;">
<circle cx="86870" cy="54140" r="140.315" /> 
<circle cx="85870" cy="54140" r="140.315" /> 
<circle cx="95300" cy="64100" r="137.815" /> 
<circle cx="95300" cy="63100" r="137.815" /> 
<circle cx="98900" cy="54289" r="137.815" /> 
<circle cx="98900" cy="52911" r="137.815" /> 
<circle cx="84350" cy="67500" r="140.315" /> 
<circle cx="87350" cy="67500" r="140.315" /> 
<circle cx="104300" cy="64100" r="140.315" /> 
<circle cx="107300" cy="64100" r="140.315" /> 
<circle cx="100850" cy="65100" r="177.315" /> 
<circle cx="100850" cy="64100" r="177.315" /> 
<circle cx="100850" cy="66100" r="177.315" /> 
<circle cx="85880" cy="49740" r="140.315" /> 
<circle cx="85880" cy="52740" r="140.315" /> 
<circle cx="86860" cy="49740" r="140.315" /> 
<circle cx="86860" cy="52740" r="140.315" /> 
<circle cx="95300" cy="52900" r="140.315" /> 
<circle cx="95300" cy="55900" r="140.315" /> 
<circle cx="95300" cy="56830" r="140.315" /> 
<circle cx="95300" cy="59830" r="140.315" /> 
<circle cx="94000" cy="65100" r="140.315" /> 
<circle cx="91000" cy="65100" r="140.315" /> 
<circle cx="89250" cy="54900" r="140.315" /> 
<circle cx="89250" cy="55900" r="140.315" /> 
<circle cx="89250" cy="56900" r="140.315" /> 
<circle cx="89250" cy="57900" r="140.315" /> 
<circle cx="92250" cy="57900" r="140.315" /> 
<circle cx="92250" cy="56900" r="140.315" /> 
<circle cx="92250" cy="55900" r="140.315" /> 
<circle cx="92250" cy="54900" r="140.315" /> 
<circle cx="108262" cy="60637" r="235.815" /> 
<circle cx="103538" cy="60637" r="235.815" /> 
<circle cx="105900" cy="61425" r="235.815" /> 
<circle cx="103538" cy="55835" r="235.815" /> 
<circle cx="108262" cy="55835" r="235.815" /> 
<circle cx="85880" cy="65277.6" r="98.4252" /> 
<circle cx="84895.7" cy="64096.5" r="98.4252" /> 
<circle cx="86864.3" cy="64096.5" r="98.4252" /> 
<circle cx="85880" cy="56222.4" r="98.4252" /> 
<circle cx="105850" cy="47250" r="105.315" /> 
<circle cx="103540" cy="50610" r="105.315" /> 
<circle cx="108260" cy="50610" r="105.315" /> 
</g>
<g style="fill:#FFFFFF; fill-opacity:1.0; 
stroke:#FFFFFF; stroke-width:394; stroke-opacity:1; 
stroke-linecap:round; stroke-linejoin:round;">
</g>
<g style="fill:#FFFFFF; fill-opacity:0.0; 
stroke:#FFFFFF; stroke-width:394; stroke-opacity:1; 
stroke-linecap:round; stroke-linejoin:round;">
<path d="M99243 49391
L98456 49391
" />
<path d="M99243 47029
L98456 47029
" />
<path d="M97000 47816
L97000 48603
" />
</g>
<g style="fill:#FFFFFF; fill-opacity:0.0; 
stroke:#FFFFFF; stroke-width:39.3701; stroke-opacity:1; 
stroke-linecap:round; stroke-linejoin:round;">
</g>
<g style="fill:#FFFFFF; fill-opacity:1.0; 
stroke:#FFFFFF; stroke-width:39.3701; stroke-opacity:1; 
stroke-linecap:round; stroke-linejoin:round;">
<circle cx="88350" cy="61100" r="137.815" /> 
<circle cx="88350" cy="65100" r="137.815" /> 
<circle cx="96600" cy="54300" r="137.815" /> 
<circle cx="96600" cy="52000" r="137.815" /> 
</g> 
</svg>
