EESchema Schematic File Version 2
LIBS:power
LIBS:device
LIBS:transistors
LIBS:conn
LIBS:linear
LIBS:regul
LIBS:74xx
LIBS:cmos4000
LIBS:adc-dac
LIBS:memory
LIBS:xilinx
LIBS:special
LIBS:microcontrollers
LIBS:dsp
LIBS:microchip
LIBS:analog_switches
LIBS:motorola
LIBS:texas
LIBS:intel
LIBS:audio
LIBS:interface
LIBS:digital-audio
LIBS:philips
LIBS:display
LIBS:cypress
LIBS:siliconi
LIBS:opto
LIBS:atmel
LIBS:contrib
LIBS:valves
LIBS:myLib
LIBS:tute1-cache
EELAYER 24 0
EELAYER END
$Descr A4 11693 8268
encoding utf-8
Sheet 1 1
Title ""
Date "18 jul 2014"
Rev ""
Comp ""
Comment1 ""
Comment2 ""
Comment3 ""
Comment4 ""
$EndDescr
$Comp
L R R2
U 1 1 53C907F9
P 3800 1000
F 0 "R2" V 3880 1000 40  0000 C CNN
F 1 "1k" V 3807 1001 40  0000 C CNN
F 2 "~" V 3730 1000 30  0000 C CNN
F 3 "~" H 3800 1000 30  0000 C CNN
	1    3800 1000
	1    0    0    1   
$EndComp
$Comp
L R R1
U 1 1 53C9083A
P 2150 2675
F 0 "R1" V 2230 2675 40  0000 C CNN
F 1 "100" V 2157 2676 40  0000 C CNN
F 2 "~" V 2080 2675 30  0000 C CNN
F 3 "~" H 2150 2675 30  0000 C CNN
	1    2150 2675
	0    -1   -1   0   
$EndComp
$Comp
L LED D1
U 1 1 53C90897
P 3000 1250
F 0 "D1" H 3000 1350 50  0000 C CNN
F 1 "LED" H 3000 1150 50  0000 C CNN
F 2 "~" H 3000 1250 60  0000 C CNN
F 3 "~" H 3000 1250 60  0000 C CNN
	1    3000 1250
	1    0    0    -1  
$EndComp
$Comp
L PIC12C508A U1
U 1 1 53C908A6
P 1600 1450
F 0 "U1" H 1600 2150 60  0000 C CNN
F 1 "PIC12C508A" H 1600 800 60  0000 C CNN
F 2 "" H 1600 1450 60  0000 C CNN
F 3 "" H 1600 1450 60  0000 C CNN
	1    1600 1450
	1    0    0    -1  
$EndComp
$Comp
L MYCONN3 J1
U 1 1 53C90BB4
P 650 2475
F 0 "J1" H 600 2075 60  0000 C CNN
F 1 "MYCONN3" H 650 2475 60  0000 C CNN
F 2 "" H 650 2475 60  0000 C CNN
F 3 "" H 650 2475 60  0000 C CNN
	1    650  2475
	-1   0    0    -1  
$EndComp
$Comp
L VCC #PWR01
U 1 1 53C90C1B
P 3800 550
F 0 "#PWR01" H 3800 650 30  0001 C CNN
F 1 "VCC" H 3800 650 30  0000 C CNN
F 2 "" H 3800 550 60  0000 C CNN
F 3 "" H 3800 550 60  0000 C CNN
	1    3800 550 
	1    0    0    -1  
$EndComp
$Comp
L VCC #PWR02
U 1 1 53C90C34
P 775 600
F 0 "#PWR02" H 775 700 30  0001 C CNN
F 1 "VCC" H 775 700 30  0000 C CNN
F 2 "" H 775 600 60  0000 C CNN
F 3 "" H 775 600 60  0000 C CNN
	1    775  600 
	1    0    0    -1  
$EndComp
$Comp
L GND #PWR03
U 1 1 53C90C55
P 2400 1025
F 0 "#PWR03" H 2400 1025 30  0001 C CNN
F 1 "GND" H 2400 955 30  0001 C CNN
F 2 "" H 2400 1025 60  0000 C CNN
F 3 "" H 2400 1025 60  0000 C CNN
	1    2400 1025
	1    0    0    -1  
$EndComp
$Comp
L GND #PWR04
U 1 1 53C90C64
P 1350 2900
F 0 "#PWR04" H 1350 2900 30  0001 C CNN
F 1 "GND" H 1350 2830 30  0001 C CNN
F 2 "" H 1350 2900 60  0000 C CNN
F 3 "" H 1350 2900 60  0000 C CNN
	1    1350 2900
	1    0    0    -1  
$EndComp
$Comp
L VCC #PWR05
U 1 1 53C90CE4
P 1350 2350
F 0 "#PWR05" H 1350 2450 30  0001 C CNN
F 1 "VCC" H 1350 2450 30  0000 C CNN
F 2 "" H 1350 2350 60  0000 C CNN
F 3 "" H 1350 2350 60  0000 C CNN
	1    1350 2350
	1    0    0    -1  
$EndComp
Wire Wire Line
	1350 2775 1350 2900
Wire Wire Line
	1200 2775 1350 2775
Wire Wire Line
	2400 2675 3200 2675
Wire Wire Line
	1200 2675 1900 2675
Wire Wire Line
	1350 2575 1350 2350
Wire Wire Line
	1200 2575 1350 2575
Wire Wire Line
	2300 1650 2625 1650
Wire Wire Line
	775  950  850  950 
Wire Wire Line
	775  600  775  950 
Wire Wire Line
	2400 950  2400 1025
Wire Wire Line
	2300 950  2400 950 
Wire Wire Line
	2300 1250 2800 1250
Text Label 2350 1650 0    60   ~ 0
INPUT
Text Label 2600 2675 0    60   ~ 0
INPUT
Text Label 2375 1250 0    60   ~ 0
uCtoLED
Text Label 3275 1250 0    60   ~ 0
LEDtoR
Text Label 1400 2675 0    60   ~ 0
INPUTtoR
NoConn ~ 850  1250
NoConn ~ 850  1650
NoConn ~ 850  1950
NoConn ~ 2300 1950
$Comp
L PWR_FLAG #FLG06
U 1 1 53C90EE4
P 2750 700
F 0 "#FLG06" H 2750 795 30  0001 C CNN
F 1 "PWR_FLAG" H 2750 880 30  0000 C CNN
F 2 "" H 2750 700 60  0000 C CNN
F 3 "" H 2750 700 60  0000 C CNN
	1    2750 700 
	1    0    0    -1  
$EndComp
$Comp
L PWR_FLAG #FLG07
U 1 1 53C90EF3
P 3100 700
F 0 "#FLG07" H 3100 795 30  0001 C CNN
F 1 "PWR_FLAG" H 3100 880 30  0000 C CNN
F 2 "" H 3100 700 60  0000 C CNN
F 3 "" H 3100 700 60  0000 C CNN
	1    3100 700 
	1    0    0    -1  
$EndComp
$Comp
L GND #PWR08
U 1 1 53C90F13
P 2750 850
F 0 "#PWR08" H 2750 850 30  0001 C CNN
F 1 "GND" H 2750 780 30  0001 C CNN
F 2 "" H 2750 850 60  0000 C CNN
F 3 "" H 2750 850 60  0000 C CNN
	1    2750 850 
	1    0    0    -1  
$EndComp
$Comp
L VCC #PWR09
U 1 1 53C90F22
P 3100 825
F 0 "#PWR09" H 3100 925 30  0001 C CNN
F 1 "VCC" H 3100 925 30  0000 C CNN
F 2 "" H 3100 825 60  0000 C CNN
F 3 "" H 3100 825 60  0000 C CNN
	1    3100 825 
	1    0    0    1   
$EndComp
Wire Wire Line
	2750 850  2750 700 
Wire Wire Line
	3100 700  3100 825 
Wire Wire Line
	3200 1250 3800 1250
Wire Wire Line
	3800 550  3800 750 
$EndSCHEMATC
