%FSLAX46Y46*%
G04 Gerber Fmt 4.6, Leading zero omitted, Abs format (unit mm)*
G04 Created by KiCad (PCBNEW (2014-jan-25)-product) date Sat 19 Jul 2014 10:40:06 BST*
%MOMM*%
G01*
G04 APERTURE LIST*
%ADD10C,0.100000*%
%ADD11R,1.397000X1.397000*%
%ADD12C,1.397000*%
%ADD13C,10.160000*%
%ADD14C,0.600000*%
G04 APERTURE END LIST*
D10*
D11*
X128524000Y-85979000D03*
D12*
X125984000Y-85979000D03*
D13*
X128524000Y-121285000D03*
X158496000Y-121285000D03*
X143510000Y-121285000D03*
D12*
X163830000Y-88519000D03*
X163830000Y-85979000D03*
X128524000Y-104140000D03*
X125984000Y-104140000D03*
D11*
X144780000Y-89535000D03*
D12*
X147320000Y-89535000D03*
X149860000Y-89535000D03*
X152400000Y-89535000D03*
X152400000Y-81915000D03*
X149860000Y-81915000D03*
X147320000Y-81915000D03*
X144780000Y-81915000D03*
D14*
X128524000Y-85979000D02*
X143256000Y-85979000D01*
X143256000Y-85979000D02*
X147320000Y-81915000D01*
X125984000Y-85979000D02*
X125984000Y-104140000D01*
X128524000Y-104140000D02*
X128524000Y-121285000D01*
X144780000Y-89535000D02*
X142875000Y-89535000D01*
X142875000Y-89535000D02*
X128524000Y-104140000D01*
X143510000Y-121285000D02*
X143510000Y-115443000D01*
X143510000Y-115443000D02*
X163830000Y-88519000D01*
X163830000Y-85979000D02*
X153924000Y-85979000D01*
X153924000Y-85979000D02*
X149860000Y-81915000D01*
M02*
